{
  "project_info": {
    "project_number": "163793842939",
    "firebase_url": "https://rdqa-onyxwifi.firebaseio.com",
    "project_id": "rdqa-onyxwifi",
    "storage_bucket": "rdqa-onyxwifi.appspot.com"
  },
  "client": [
    {
      "client_info": {
        "mobilesdk_app_id": "1:163793842939:android:372416a3f3298fc9b0f65e",
        "android_client_info": {
          "package_name": "com.onyx.wifi.rdqa"
        }
      },
      "oauth_client": [
        {
          "client_id": "163793842939-hj5ia1glj8beuivf5tvihg0nls6iv8f6.apps.googleusercontent.com",
          "client_type": 1,
          "android_info": {
            "package_name": "com.onyx.wifi.rdqa",
            "certificate_hash": "4564ffdef66c56936016bb452f119cc537f2972e"
          }
        },
        {
          "client_id": "163793842939-7bmjk4devaut29g127jn7ig9he87k4oo.apps.googleusercontent.com",
          "client_type": 3
        }
      ],
      "api_key": [
        {
          "current_key": "AIzaSyAVEyioNUhJtj-UCNv0vsqq8MG1gIfHpic"
        }
      ],
      "services": {
        "appinvite_service": {
          "other_platform_oauth_client": [
            {
              "client_id": "163793842939-7bmjk4devaut29g127jn7ig9he87k4oo.apps.googleusercontent.com",
              "client_type": 3
            },
            {
              "client_id": "163793842939-2k005ibeevig31eqocvtceltarkb17g1.apps.googleusercontent.com",
              "client_type": 2,
              "ios_info": {
                "bundle_id": "com.u-media.onyxwifi"
              }
            }
          ]
        }
      }
    }
  ],
  "configuration_version": "1"
}